<?xml version="1.0" standalone="no"?>
<!DOCTYPE svg PUBLIC "-//W3C//DTD SVG 20010904//EN"
        "http://www.w3.org/TR/2001/REC-SVG-20010904/DTD/svg10.dtd">
<svg version="1.0" xmlns="http://www.w3.org/2000/svg" viewBox="177.584 117.821 168.812 167.944" width="168.812"
     height="167.944">
    <ellipse style="stroke: rgb(0, 0, 0); fill: rgb(255, 255, 255);" cx="261.99" cy="201.793" rx="84.406"
             ry="83.972"></ellipse>
    <g transform="matrix(0.121809, 0, 0, -0.121809, -41.134228, 525.891357)" style="">
        <title>tuprimero</title>
        <path d="M 2203.963 3068.491 C 2086.963 3047.491 1950.963 3007.491 1916.963 2983.491 C 1879.963 2957.491 1888.963 2933.491 1956.963 2882.491 C 2088.963 2782.491 2128.963 2731.491 2170.963 2612.491 C 2196.963 2538.491 2197.963 2523.491 2196.963 2376.491 C 2195.963 2281.491 2198.963 2218.491 2204.963 2218.491 C 2218.963 2218.491 2221.963 2232.491 2233.963 2363.491 C 2254.963 2595.491 2321.963 3029.491 2338.963 3047.491 C 2353.963 3061.491 2518.963 3047.491 2616.963 3023.491 C 2649.963 3014.491 2653.963 3032.491 2621.963 3049.491 C 2592.963 3064.491 2432.963 3088.491 2363.963 3087.491 C 2333.963 3087.491 2261.963 3078.491 2203.963 3068.491 Z M 2289.963 3016.491 C 2271.963 2930.491 2234.963 2695.491 2227.963 2630.491 C 2223.963 2590.491 2217.963 2560.491 2214.963 2565.491 C 2210.963 2569.491 2199.963 2598.491 2190.963 2628.491 C 2160.963 2729.491 2088.963 2818.491 1971.963 2900.491 C 1940.963 2922.491 1916.963 2944.491 1919.963 2949.491 C 1926.963 2961.491 2068.963 3004.491 2178.963 3027.491 C 2301.963 3054.491 2297.963 3054.491 2289.963 3016.491 Z"
              style=""></path>
        <path d="M 2888.963 3024.491 C 2851.963 3008.491 2791.963 2943.491 2762.963 2886.491 C 2749.963 2862.491 2725.963 2798.491 2707.963 2743.491 L 2674.963 2643.491 L 2680.963 2758.491 C 2688.963 2923.491 2662.963 2999.491 2615.963 2948.491 C 2555.963 2883.491 2543.963 2638.491 2600.963 2638.491 C 2616.963 2638.491 2617.963 2650.491 2603.963 2664.491 C 2571.963 2696.491 2590.963 2879.491 2628.963 2918.491 C 2641.963 2930.491 2643.963 2922.491 2643.963 2848.491 C 2643.963 2801.491 2640.963 2706.491 2636.963 2636.491 C 2631.963 2536.491 2627.963 2511.491 2617.963 2515.491 C 2600.963 2521.491 2599.963 2506.491 2615.963 2490.491 C 2623.963 2482.491 2626.963 2437.491 2624.963 2338.491 C 2622.963 2221.491 2624.963 2198.491 2636.963 2198.491 C 2651.963 2198.491 2663.963 2272.491 2663.963 2367.491 C 2663.963 2449.491 2669.963 2458.491 2722.963 2458.491 C 2880.963 2458.491 3053.963 2677.491 3053.963 2877.491 C 3053.963 2934.491 3022.963 2998.491 2984.963 3021.491 C 2950.963 3041.491 2929.963 3042.491 2888.963 3024.491 Z M 2981.963 2985.491 C 3015.963 2949.491 3026.963 2879.491 3009.963 2798.491 C 2973.963 2629.491 2841.963 2489.491 2716.963 2488.491 C 2674.963 2488.491 2674.963 2488.491 2679.963 2521.491 C 2738.963 2859.491 2886.963 3087.491 2981.963 2985.491 Z"
              style=""></path>
    </g>
</svg>
